{
    "users": [
        { "username": "admin", "password": "123" }, 
        { "username": "admin", "password": "123" },
        { "username": "admin", "password": "123" }, 
        { "username": "admin", "password": "123" }, 
        // { "username": "test", "password": "1234" },
        // { "username": "invaliduser", "password": "password"} 
    ]
}
